A general framework to run analyses in Santos et al.xxxxx
…
5.2.3. Produce a definitive demographic buffering data frame

This new data frame will be ready for merging with climatic data and life history traits

databuff_data<-left_join(
ElasSigVR_data%>%setNames(paste0(names(.),'_SigElas')),
StochElasVR_data%>%setNames(paste0(names(.),'_Base')),
by=c("ID_SigElas"="ID_Base"))

databuff_data

# A tibble: 350 × 13
   ID_SigElas    Reproduction_SigElas Growth_SigElas Shrinking_SigElas
   <chr>                        <dbl>          <dbl>             <dbl>
 1 Drc2.151_550            -0.0000551      0.00160         -0.000129  
 2 Drc2.151_548            -0.0000983     -0.00111         -0.0000306 
 3 Drc2.151_546            -0.0000198     -0.000534        -0.0000270 
 4 Drc2.151_547             0              0                0         
 5 Pnx2.399_1046           -0.000236       0.00300          0.00000517
 6 Prm4.582_1157           -0.138          0.0431           0.0142    
 7 Crsm.158_413            -0.0346         0                0         
 8 Trll.304_1438            0             -0.0000977        0.0000160 
 9 Trll.304_1442            0              0.000722        -0.00000727
10 Trll.304_1445            0              0.000158         0.00000199
# ℹ 340 more rows
# ℹ 9 more variables: Clonality_SigElas <dbl>, Survival_SigElas <dbl>,
#   Cumulative_SigElas <dbl>, Reproduction_Base <dbl>, Growth_Base <dbl>,
#   Shrinking_Base <dbl>, Clonality_Base <dbl>, Survival_Base <dbl>,
#   Cumulative_Base <dbl>
…
LHpca_axes12<-LHpca$ind$coord[,c(1,2)]%>%data.frame()%>%rownames_to_column("ID")
ClimPCA_axes123<-ClimPCA$ind$coord[,c(1,2,3)]%>%data.frame()%>%rownames_to_column("ID")

merged_data<-databuff_data%>%
left_join(.,LHpca_axes12,by="ID")%>%
left_join(.,ClimPCA_axes123,by="ID")%>%
filter(complete.cases(.))%>%
left_join(.,MetadataClean,by="ID")%>%
distinct(ID,.keep_all=TRUE)

merged_data

# A tibble: 134 × 30
   ID    Reproduction_SigElas Growth_SigElas Shrinking_SigElas Clonality_SigElas
   <chr>                <dbl>          <dbl>             <dbl>             <dbl>
 1 Drc2…           -0.0000551      0.00160        -0.000129                    0
 2 Prm4…           -0.138          0.0431          0.0142                      0
 3 Trll…            0             -0.0000977       0.0000160                   0
 4 Trll…            0              0.000722       -0.00000727                  0
 5 Trll…            0              0.000640       -0.0000496                   0
 6 Trll…            0              0.000102       -0.000196                    0
 7 Trll…            0             -0.000569       -0.000170                    0
 8 Trll…            0              0.0000227       0                           0
 9 Trll…            0              0.000256        0.0000229                   0
10 Trll…            0             -0.00157         0.000000315                 0
# ℹ 124 more rows
# ℹ 25 more variables: Survival_SigElas <dbl>, Cumulative_SigElas <dbl>,
#   Reproduction_Base <dbl>, Growth_Base <dbl>, Shrinking_Base <dbl>,
#   Clonality_Base <dbl>, Survival_Base <dbl>, Cumulative_Base <dbl>,
#   Buffmx <dbl>, MatRep <int>, LHPC.1 <dbl>, LHPC.2 <dbl>, ClimPC.1 <dbl>,
#   ClimPC.2 <dbl>, ClimPC.3 <dbl>, SpeciesAccepted <chr>, Kingdom <chr>,
#   Phylum <chr>, Class <chr>, Order <chr>, OrganismType <chr>, …
…
Quantify proportional contribution of each vital rate to \(| \sum E_v^\sigma |\). We used percentage RelContrib*100 to improve readability.

RelContrib<-final_data%>%as_tibble()%>%
select(ID,Reproduction_SigElas:Survival_SigElas)%>%
mutate_if(is.numeric,abs)%>%  # Make sure valures are in their absolute form. (This is likely to be removed in next version because it is already done in the final dataset  but confirm before remove this line)
mutate(NewCumulative=rowSums(across(where(is.numeric))))%>%
#mutate_if(is.numeric,round,4)%>%glimpse()
pivot_longer(!c(ID,NewCumulative))%>%
mutate(RelativeProp=(value/NewCumulative))%>%
left_join(.,MetadataClean%>%select(-lambda)%>%distinct(),by="ID")

RelContrib%>%mutate_if(is.numeric,round,5)%>%filter(Kingdom=="Plantae")

# A tibble: 605 × 14
   ID    NewCumulative name    value RelativeProp SpeciesAccepted Kingdom Phylum
   <chr>         <dbl> <chr>   <dbl>        <dbl> <chr>           <chr>   <chr> 
 1 Ephr…       0.00266 Repr… 0.00037       0.141  Euphorbia font… Plantae Magno…
 2 Ephr…       0.00266 Grow… 0.00076       0.285  Euphorbia font… Plantae Magno…
 3 Ephr…       0.00266 Shri… 0.00003       0.0123 Euphorbia font… Plantae Magno…
 4 Ephr…       0.00266 Clon… 0             0      Euphorbia font… Plantae Magno…
 5 Ephr…       0.00266 Surv… 0.00149       0.562  Euphorbia font… Plantae Magno…
 6 Hypr…       0.191   Repr… 0.0647        0.339  Hypericum cumu… Plantae Magno…
 7 Hypr…       0.191   Grow… 0.00419       0.0220 Hypericum cumu… Plantae Magno…
 8 Hypr…       0.191   Shri… 0.00199       0.0104 Hypericum cumu… Plantae Magno…
 9 Hypr…       0.191   Clon… 0             0      Hypericum cumu… Plantae Magno…
10 Hypr…       0.191   Surv… 0.120         0.629  Hypericum cumu… Plantae Magno…
# ℹ 595 more rows
# ℹ 6 more variables: Class <chr>, Order <chr>, OrganismType <chr>,
#   AngioGymno <chr>, Ecoregion <chr>, Binomial <chr>
…
By Organism types

#Relative contribution by organismType
RelContrib_orgType<-RelContrib%>%
  mutate(Taxa=ifelse(Kingdom=="Plantae", OrganismType,Phylum))%>%
  group_by(Kingdom,name,Taxa)%>%
  summarise(Relativemean=mean(RelativeProp),
            n=n(),
            SD=sd(RelativeProp))

RelContrib_orgType%>%
  mutate(Relativemean=(Relativemean*100),
         SD=SD*100)%>%mutate_if(is.numeric,round,3)%>%filter(Kingdom=="Plantae")%>%ungroup()%>%select(-Kingdom)

# A tibble: 35 × 5
   name              Taxa                 Relativemean     n     SD
   <chr>             <chr>                       <dbl> <dbl>  <dbl>
 1 Clonality_SigElas Annual                      0         4  0    
 2 Clonality_SigElas Epiphyte                    0         1 NA    
 3 Clonality_SigElas Herbaceous perennial        6.3      92 21.1  
 4 Clonality_SigElas Palm                        1.05      3  1.83 
 5 Clonality_SigElas Shrub                       0         3  0    
 6 Clonality_SigElas Succulent                   0        10  0    
 7 Clonality_SigElas Tree                        0         8  0    
 8 Growth_SigElas    Annual                      0.041     4  0.081
 9 Growth_SigElas    Epiphyte                    1.77      1 NA    
10 Growth_SigElas    Herbaceous perennial       20.7      92 22.1  
# ℹ 25 more rows
…
Warning: Expected 1 pieces. Additional pieces discarded in 138600 rows [1, 2, 3, 4, 5,
6, 7, 8, 9, 10, 11, 12, 13, 14, 15, 16, 17, 18, 19, 20, ...].

Posterior_data<-left_join(Posterior_data,
                          GLMMs_df%>%separate(Trait,"Trait"),
                          by=c("Trait","Taxa","Model","Variables"="Statistics"))%>%
  mutate(sig=ifelse(pMCMC<=0.05,"Sig","Non-Sig"))

Warning: Expected 1 pieces. Additional pieces discarded in 84 rows [1, 2, 3, 4, 5, 6, 7,
8, 9, 10, 11, 12, 13, 14, 15, 16, 17, 18, 19, 20, ...].

Posterior_data%>%as_tibble()

# A tibble: 831,600 × 11
   Trait      Taxa  Model Variables   Values post.mean    low95  high95 eff.samp
   <chr>      <chr> <chr> <chr>        <dbl>     <dbl>    <dbl>   <dbl>    <dbl>
 1 Reproduct… Plan… Phylo LHPC.1     2.94e-4  -0.00353 -0.0111  0.00355    9900.
 2 Reproduct… Plan… Phylo LHPC.2    -1.12e-3  -0.00341 -0.0157  0.00926   10210.
 3 Reproduct… Plan… Phylo ClimPC.1   2.26e-2   0.00842 -0.0135  0.0275     9900.
 4 Reproduct… Plan… Phylo ClimPC.2  -1.28e-2   0.00146 -0.0160  0.0190     9900.
 5 Reproduct… Plan… Phylo LHPC.1:L…  1.66e-4   0.00411 -0.00270 0.0111     9441.
 6 Reproduct… Plan… Phylo ClimPC.1…  1.57e-2   0.0109  -0.00120 0.0231     9900.
 7 Reproduct… Plan… Phylo LHPC.1    -2.34e-3  -0.00353 -0.0111  0.00355    9900.
 8 Reproduct… Plan… Phylo LHPC.2    -3.83e-3  -0.00341 -0.0157  0.00926   10210.
 9 Reproduct… Plan… Phylo ClimPC.1  -2.64e-3   0.00842 -0.0135  0.0275     9900.
10 Reproduct… Plan… Phylo ClimPC.2   4.94e-3   0.00146 -0.0160  0.0190     9900.
# ℹ 831,590 more rows
# ℹ 2 more variables: pMCMC <dbl>, sig <chr>
…
